Trending Videos (Data Story)
…
The table shows that there is 7 variables and 29,943 observations. The variables are labelled as factor and integer.

Since there is an enormous amount of data for trending videos, the means of each variable is explored. The code to find the means is written below.

daily_means <- df_1clean  %>%
  group_by(trending_date) %>%
  summarise(n_title = n(),
            mean_likes = mean(likes),
             mean_views = mean(views),
             mean_dislikes = mean(dislikes),
            mean_comment_count = mean(comment_count))
daily_means

## # A tibble: 205 x 6
##    trending_date n_title mean_likes mean_views mean_dislikes
##    <fct>           <int>      <dbl>      <dbl>         <dbl>
##  1 17.01.12          162     48910.   1348747.         2586.
##  2 17.02.12          143     70996.   1671943.         2457.
##  3 17.03.12          148     78798.   1981795.         2893.
##  4 17.04.12          159     76604.   2158642.         3239.
##  5 17.05.12          145     83257.   2371184.         3312.
##  6 17.06.12          133     72899.   2114607.         2204.
##  7 17.07.12          150     70974.   2230864.         5387.
##  8 17.08.12          143     49521.   1624565.         8152.
##  9 17.09.12          158     61073.   1962479.         9472.
## 10 17.10.12          156     63623.   1932300.        10399.
## # ... with 195 more rows, and 1 more variable: mean_comment_count <dbl>
…
